…
    ## Rows: 1 Columns: 8

    ## -- Column specification --------------------------------------------------------
    ## Delimiter: ","
    ## dbl (8): week_1, week_2, week_3, week_4, week_5, week_6, week_7, week_8

    ## 
    ## i Use `spec()` to retrieve the full column specification for this data.
    ## i Specify the column types or set `show_col_types = FALSE` to quiet this message.

``` r
data_files
```

    ## # A tibble: 160 x 4
    ##    arm     subject_id week  observation
    ##    <chr>   <chr>      <chr>       <dbl>
    ##  1 Control 01         1            0.2 
    ##  2 Control 01         2           -1.31
    ##  3 Control 01         3            0.66
    ##  4 Control 01         4            1.96
    ##  5 Control 01         5            0.23
    ##  6 Control 01         6            1.09
    ##  7 Control 01         7            0.05
    ##  8 Control 01         8            1.94
    ##  9 Control 02         1            1.13
    ## 10 Control 02         2           -0.88
    ## # ... with 150 more rows
…
